d.vcd
$date
	Fri Jul 19 11:41:57 2024
$end

$version
	Synopsys VCS version U-2023.03-SP2_Full64
$end

$timescale
	1ns
$end

$comment Csum: 1 fa59ac3b067e3c0d $end


$scope module $unit $end
$upscope $end


$scope module top $end
$var reg 1 ! clk $end

$scope begin unnamed$$_vcs_4 $end
$upscope $end


$scope begin unnamed$$_vcs_0 $end
$upscope $end


$scope begin unnamed$$_vcs_1 $end
$upscope $end


$scope begin unnamed$$_vcs_2 $end
$upscope $end


$scope begin unnamed$$_vcs_3 $end
$upscope $end


$scope module intf $end
$var reg 1 " clk $end
$var reg 1 # n_rst $end
$var reg 1 $ en $end
$var reg 4 % foo [3:0] $end
$var reg 4 & bar [3:0] $end
$var reg 4 ' foo_and_bar [3:0] $end
$var reg 4 ( foo_or_bar [3:0] $end
$var reg 4 ) foo_xor_bar [3:0] $end
$var reg 4 * foo_nand_bar [3:0] $end
$upscope $end


$scope module dut $end
$var reg 1 " clk $end
$var reg 1 + n_rst $end
$var reg 1 , en $end
$var reg 4 - foo [3:0] $end
$var reg 4 . bar [3:0] $end
$var reg 4 / foo_and_bar [3:0] $end
$var reg 4 0 foo_or_bar [3:0] $end
$var reg 4 1 foo_xor_bar [3:0] $end
$var reg 4 2 foo_nand_bar [3:0] $end
$var reg 4 3 nxt_foo_and_bar [3:0] $end
$var reg 4 4 nxt_foo_or_bar [3:0] $end
$var reg 4 5 nxt_foo_xor_bar [3:0] $end
$var reg 4 6 nxt_foo_nand_bar [3:0] $end

$scope begin FF $end
$upscope $end


$scope begin COMB $end
$upscope $end

$upscope $end

$upscope $end


$scope module uvm_pkg $end
$var time 64 7 setting_offset $end
$var reg 32 8 uvm_global_random_seed [31:0] $end
$var reg 32 9 UVM_UNBOUNDED_CONNECTIONS [31:0] $end
$var reg 1 : uvm_start_uvm_declarations $end
$var reg 32 ; setting_verbosity [31:0] $end
$var reg 1 < is_verdi_set_verbosity_called $end
$upscope $end

$enddefinitions $end

#0
$dumpvars
0<
1:
bxxxxxxxxxxxxxxxxxxxxxxxxxxxxxxxxxxxxxxxxxxxxxxxxxxxxxxxxxxxxxxxx 7
b11111111111111111111111111111111 9
b00000000000000000000000000000000 ;
b01000010000001111100110001000111 8
0!
bxxxx *
bxxxx )
bxxxx (
bxxxx '
bxxxx &
bxxxx %
bxxxx .
bxxxx -
bxxxx /
bxxxx 2
bxxxx 0
bxxxx 1
bxxxx 3
bxxxx 6
bxxxx 4
bxxxx 5
x,
x+
0"
x$
x#
$end
#5
1!
1"
0#
0+
1$
1,
b0010 %
b0010 -
b0000 &
b0000 .
b0000 3
b0010 4
b0010 5
b1111 6
b0000 /
b0000 '
b0000 0
b0000 (
b0000 1
b0000 )
b0000 2
b0000 *
#7
0!
0"
#9
1!
1"
#11
0!
0"
#13
1!
1"
#15
0!
0"
#17
1!
1"
1#
1+
b1100 %
b1100 -
b0001 &
b0001 .
b1101 4
b1101 5
#19
0!
0"
#21
1!
1"
b1101 0
b1101 (
b1101 1
b1101 )
b1111 2
b1111 *
#23
0!
0"
#25
1!
1"
#27
0!
0"
#29
1!
1"
b1011 %
b1011 -
b0111 &
b0111 .
b0011 3
b1111 4
b1100 5
b1100 6
#31
0!
0"
#33
1!
1"
b0011 /
b0011 '
b1111 0
b1111 (
b1100 1
b1100 )
b1100 2
b1100 *
#35
0!
0"
#37
1!
1"
#39
0!
0"
#41
1!
1"
0$
0,
b0100 %
b0100 -
b0110 &
b0110 .
#43
0!
0"
#45
1!
1"
#47
0!
0"
#49
1!
1"
#51
0!
0"
#53
1!
1"
1$
1,
b0110 %
b0110 -
b1001 &
b1001 .
b0000 3
b1111 5
b1111 6
#55
0!
0"
#57
1!
1"
b0000 /
b0000 '
b1111 1
b1111 )
b1111 2
b1111 *
#59
0!
0"
#61
1!
1"
#63
0!
0"
#65
1!
1"
b0010 %
b0010 -
b0110 &
b0110 .
b0010 3
b0110 4
b0100 5
b1101 6
#67
0!
0"
#69
1!
1"
b0010 /
b0010 '
b0110 0
b0110 (
b0100 1
b0100 )
b1101 2
b1101 *
#71
0!
0"
#73
1!
1"
#75
0!
0"
#77
1!
1"
b1001 %
b1001 -
b0010 &
b0010 .
b0000 3
b1011 4
b1011 5
b1111 6
#79
0!
0"
#81
1!
1"
b0000 /
b0000 '
b1011 0
b1011 (
b1011 1
b1011 )
b1111 2
b1111 *
#83
0!
0"
#85
1!
1"
#87
0!
0"
#89
1!
1"
b1010 %
b1010 -
b1011 &
b1011 .
b1010 3
b0001 5
b0101 6
#91
0!
0"
#93
1!
1"
b1010 /
b1010 '
b0001 1
b0001 )
b0101 2
b0101 *
#95
0!
0"
#97
1!
1"
#99
0!
0"
#101
1!
1"
0$
0,
b0000 %
b0000 -
b0010 &
b0010 .
#103
0!
0"
#105
1!
1"
#107
0!
0"
#109
1!
1"
#111
0!
0"
#113
1!
1"
1$
1,
b1111 %
b1111 -
b1011 &
b1011 .
b1011 3
b1111 4
b0100 5
b0100 6
#115
0!
0"
#117
1!
1"
b1011 /
b1011 '
b1111 0
b1111 (
b0100 1
b0100 )
b0100 2
b0100 *
#119
0!
0"
#121
1!
1"
#123
0!
0"
#125
1!
1"
b1111 &
b1111 .
b1111 3
b0000 5
b0000 6
#127
0!
0"
#129
1!
1"
b1111 /
b1111 '
b0000 1
b0000 )
b0000 2
b0000 *
#131
0!
0"
#133
1!
1"
#135
0!
0"
#137
1!
1"
b1100 %
b1100 -
b1001 &
b1001 .
b1000 3
b1101 4
b0101 5
b0111 6
#139
0!
0"
#141
1!
1"
b1000 /
b1000 '
b1101 0
b1101 (
b0101 1
b0101 )
b0111 2
b0111 *
#143
0!
0"
#145
1!
1"
#147
0!
0"
#149
1!
1"
b0110 %
b0110 -
b0000 3
b1111 4
b1111 5
b1111 6
#151
0!
0"
#153
1!
1"
b0000 /
b0000 '
b1111 0
b1111 (
b1111 1
b1111 )
b1111 2
b1111 *
#155
0!
0"
#157
1!
1"
#159
0!
0"
#161
1!
1"
b0010 %
b0010 -
b1010 &
b1010 .
b0010 3
b1010 4
b1000 5
b1101 6
#163
0!
0"
#165
1!
1"
b0010 /
b0010 '
b1010 0
b1010 (
b1000 1
b1000 )
b1101 2
b1101 *
#167
0!
0"
#169
1!
1"
#171
0!
0"
#173
1!
1"
b0001 %
b0001 -
b1110 &
b1110 .
b0000 3
b1111 4
b1111 5
b1111 6
#175
0!
0"
#177
1!
1"
b0000 /
b0000 '
b1111 0
b1111 (
b1111 1
b1111 )
b1111 2
b1111 *
#179
0!
0"
#181
1!
1"
#183
0!
0"
#185
1!
1"
b0101 %
b0101 -
b1001 &
b1001 .
b0001 3
b1101 4
b1100 5
b1110 6
#187
0!
0"
#189
1!
1"
b0001 /
b0001 '
b1101 0
b1101 (
b1100 1
b1100 )
b1110 2
b1110 *
#191
0!
0"
#193
1!
1"
#195
0!
0"
#197
1!
1"
0$
0,
b0111 %
b0111 -
#199
0!
0"
#201
1!
1"
#203
0!
0"
#205
1!
1"
#207
0!
0"
#209
1!
1"
1$
1,
b1111 %
b1111 -
b0000 &
b0000 .
b0000 3
b1111 4
b1111 5
b1111 6
#211
0!
0"
#213
1!
1"
b0000 /
b0000 '
b1111 0
b1111 (
b1111 1
b1111 )
b1111 2
b1111 *
#215
0!
0"
#217
1!
1"
#219
0!
0"
#221
1!
1"
b1110 %
b1110 -
b0100 &
b0100 .
b0100 3
b1110 4
b1010 5
b1011 6
#223
0!
0"
#225
1!
1"
b0100 /
b0100 '
b1110 0
b1110 (
b1010 1
b1010 )
b1011 2
b1011 *
#227
0!
0"
#229
1!
1"
#231
0!
0"
#233
1!
1"
b1111 %
b1111 -
b0001 &
b0001 .
b0001 3
b1111 4
b1110 5
b1110 6
#235
0!
0"
#237
1!
1"
b0001 /
b0001 '
b1111 0
b1111 (
b1110 1
b1110 )
b1110 2
b1110 *
#239
0!
0"
#241
1!
1"
#243
0!
0"
#245
1!
1"
0$
0,
b0000 %
b0000 -
b1000 &
b1000 .
#247
0!
0"
#249
1!
1"
#251
0!
0"
#253
1!
1"
#255
0!
0"
#257
1!
1"
1$
1,
b1001 %
b1001 -
b0001 &
b0001 .
b1001 4
b1000 5
#259
0!
0"
#261
1!
1"
b1001 0
b1001 (
b1000 1
b1000 )
#263
0!
0"
#265
1!
1"
#267
0!
0"
#269
1!
1"
b0111 %
b0111 -
b0010 &
b0010 .
b0010 3
b0111 4
b0101 5
b1101 6
#271
0!
0"
#273
1!
1"
b0010 /
b0010 '
b0111 0
b0111 (
b0101 1
b0101 )
b1101 2
b1101 *
#275
0!
0"
#277
1!
1"
#279
0!
0"
#281
1!
1"
b1001 %
b1001 -
b0000 3
b1011 4
b1011 5
b1111 6
#283
0!
0"
#285
1!
1"
b0000 /
b0000 '
b1011 0
b1011 (
b1011 1
b1011 )
b1111 2
b1111 *
#287
0!
0"
#289
1!
1"
#291
0!
0"
#293
1!
1"
b0001 %
b0001 -
b0111 &
b0111 .
b0001 3
b0111 4
b0110 5
b1110 6
#295
0!
0"
#297
1!
1"
b0001 /
b0001 '
b0111 0
b0111 (
b0110 1
b0110 )
b1110 2
b1110 *
#299
0!
0"
#301
1!
1"
#303
0!
0"
#305
1!
1"
b0110 %
b0110 -
b1010 &
b1010 .
b0010 3
b1110 4
b1100 5
b1101 6
#307
0!
0"
#309
1!
1"
b0010 /
b0010 '
b1110 0
b1110 (
b1100 1
b1100 )
b1101 2
b1101 *
#311
0!
0"
#313
1!
1"
#315
0!
0"
#317
1!
1"
b1000 %
b1000 -
b0110 &
b0110 .
b0000 3
b1110 5
b1111 6
#319
0!
0"
#321
1!
1"
b0000 /
b0000 '
b1110 1
b1110 )
b1111 2
b1111 *
#323
0!
0"
#325
1!
1"
#327
0!
0"
#329
1!
1"
0$
0,
b0000 %
b0000 -
b1101 &
b1101 .
#331
0!
0"
#333
1!
1"
#335
0!
0"
#337
1!
1"
#339
0!
0"
#341
1!
1"
1$
1,
b1000 %
b1000 -
b0000 &
b0000 .
b1000 4
b1000 5
#343
0!
0"
#345
1!
1"
b1000 0
b1000 (
b1000 1
b1000 )
#347
0!
0"
#349
1!
1"
#351
0!
0"
#353
1!
1"
b0110 %
b0110 -
b0101 &
b0101 .
b0100 3
b0111 4
b0011 5
b1011 6
#355
0!
0"
#357
1!
1"
b0100 /
b0100 '
b0111 0
b0111 (
b0011 1
b0011 )
b1011 2
b1011 *
#359
0!
0"
#361
1!
1"
#363
0!
0"
#365
1!
1"
b1101 %
b1101 -
b0011 &
b0011 .
b0001 3
b1111 4
b1110 5
b1110 6
#367
0!
0"
#369
1!
1"
b0001 /
b0001 '
b1111 0
b1111 (
b1110 1
b1110 )
b1110 2
b1110 *
#371
0!
0"
#373
1!
1"
#375
0!
0"
#377
1!
1"
b0000 %
b0000 -
b0010 &
b0010 .
b0000 3
b0010 4
b0010 5
b1111 6
#379
0!
0"
#381
1!
1"
b0000 /
b0000 '
b0010 0
b0010 (
b0010 1
b0010 )
b1111 2
b1111 *
#383
0!
0"
#385
1!
1"
#387
0!
0"
#389
1!
1"
b1111 %
b1111 -
b0010 3
b1111 4
b1101 5
b1101 6
#391
0!
0"
#393
1!
1"
b0010 /
b0010 '
b1111 0
b1111 (
b1101 1
b1101 )
b1101 2
b1101 *
#395
0!
0"
#397
1!
1"
#399
0!
0"
#401
1!
1"
b1101 %
b1101 -
b1101 &
b1101 .
b1101 3
b1101 4
b0000 5
b0010 6
#403
0!
0"
#405
1!
1"
b1101 /
b1101 '
b1101 0
b1101 (
b0000 1
b0000 )
b0010 2
b0010 *
#407
0!
0"
#409
1!
1"
#411
0!
0"
#413
1!
1"
b1011 %
b1011 -
b1000 &
b1000 .
b1000 3
b1011 4
b0011 5
b0111 6
#415
0!
0"
#417
1!
1"
b1000 /
b1000 '
b1011 0
b1011 (
b0011 1
b0011 )
b0111 2
b0111 *
#419
0!
0"
#421
1!
1"
#423
0!
0"
#425
1!
1"
b0110 %
b0110 -
b1101 &
b1101 .
b0100 3
b1111 4
b1011 5
b1011 6
#427
0!
0"
#429
1!
1"
b0100 /
b0100 '
b1111 0
b1111 (
b1011 1
b1011 )
b1011 2
b1011 *
#431
0!
0"
#433
1!
1"
#435
0!
0"
#437
1!
1"
b0011 &
b0011 .
b0010 3
b0111 4
b0101 5
b1101 6
#439
0!
0"
#441
1!
1"
b0010 /
b0010 '
b0111 0
b0111 (
b0101 1
b0101 )
b1101 2
b1101 *
#443
0!
0"
#445
1!
1"
#447
0!
0"
#449
1!
1"
b0101 %
b0101 -
b1011 &
b1011 .
b0001 3
b1111 4
b1110 5
b1110 6
#451
0!
0"
#453
1!
1"
b0001 /
b0001 '
b1111 0
b1111 (
b1110 1
b1110 )
b1110 2
b1110 *
#455
0!
0"
#457
1!
1"
#459
0!
0"
#461
1!
1"
b1011 %
b1011 -
b1001 &
b1001 .
b1001 3
b1011 4
b0010 5
b0110 6
#463
0!
0"
#465
1!
1"
b1001 /
b1001 '
b1011 0
b1011 (
b0010 1
b0010 )
b0110 2
b0110 *
#467
0!
0"
#469
1!
1"
#471
0!
0"
#473
1!
1"
b1001 %
b1001 -
b0110 &
b0110 .
b0000 3
b1111 4
b1111 5
b1111 6
#475
0!
0"
#477
1!
1"
b0000 /
b0000 '
b1111 0
b1111 (
b1111 1
b1111 )
b1111 2
b1111 *
#479
0!
0"
#481
1!
1"
#483
0!
0"
#485
1!
1"
b0100 %
b0100 -
b0001 &
b0001 .
b0101 4
b0101 5
#487
0!
0"
#489
1!
1"
b0101 0
b0101 (
b0101 1
b0101 )
#491
0!
0"
#493
1!
1"
#495
0!
0"
#497
1!
1"
b1111 %
b1111 -
b1101 &
b1101 .
b1101 3
b1111 4
b0010 5
b0010 6
#499
0!
0"
#501
1!
1"
b1101 /
b1101 '
b1111 0
b1111 (
b0010 1
b0010 )
b0010 2
b0010 *
#503
0!
0"
#505
1!
1"
#507
0!
0"
#509
1!
1"
b1010 &
b1010 .
b1010 3
b0101 5
b0101 6
#511
0!
0"
#513
1!
1"
b1010 /
b1010 '
b0101 1
b0101 )
b0101 2
b0101 *
#515
0!
0"
#517
1!
1"
#519
0!
0"
#521
1!
1"
b1101 %
b1101 -
b1110 &
b1110 .
b1100 3
b0011 5
b0011 6
#523
0!
0"
#525
1!
1"
b1100 /
b1100 '
b0011 1
b0011 )
b0011 2
b0011 *
#527
0!
0"
#529
1!
1"
#531
0!
0"
#533
1!
1"
b0101 %
b0101 -
b0111 &
b0111 .
b0101 3
b0111 4
b0010 5
b1010 6
#535
0!
0"
#537
1!
1"
b0101 /
b0101 '
b0111 0
b0111 (
b0010 1
b0010 )
b1010 2
b1010 *
#539
0!
0"
#541
1!
1"
#543
0!
0"
#545
1!
1"
b0110 %
b0110 -
b0100 &
b0100 .
b0100 3
b0110 4
b1011 6
#547
0!
0"
#549
1!
1"
b0100 /
b0100 '
b0110 0
b0110 (
b1011 2
b1011 *
#551
0!
0"
#553
1!
1"
#555
0!
0"
#557
1!
1"
0$
0,
b1111 %
b1111 -
b1001 &
b1001 .
#559
0!
0"
#561
1!
1"
#563
0!
0"
#565
1!
1"
#567
0!
0"
#569
1!
1"
1$
1,
b0111 %
b0111 -
b0001 3
b1111 4
b1110 5
b1110 6
#571
0!
0"
#573
1!
1"
b0001 /
b0001 '
b1111 0
b1111 (
b1110 1
b1110 )
b1110 2
b1110 *
#575
0!
0"
#577
1!
1"
#579
0!
0"
#581
1!
1"
b1100 %
b1100 -
b0110 &
b0110 .
b0100 3
b1110 4
b1010 5
b1011 6
#583
0!
0"
#585
1!
1"
b0100 /
b0100 '
b1110 0
b1110 (
b1010 1
b1010 )
b1011 2
b1011 *
#587
0!
0"
#589
1!
1"
#591
0!
0"
#593
1!
1"
b1001 %
b1001 -
b0111 &
b0111 .
b0001 3
b1111 4
b1110 5
b1110 6
#595
0!
0"
#597
1!
1"
b0001 /
b0001 '
b1111 0
b1111 (
b1110 1
b1110 )
b1110 2
b1110 *
#599
0!
0"
#601
1!
1"
#603
0!
0"
#605
1!
1"
b1100 &
b1100 .
b1000 3
b1101 4
b0101 5
b0111 6
#607
0!
0"
#609
1!
1"
b1000 /
b1000 '
b1101 0
b1101 (
b0101 1
b0101 )
b0111 2
b0111 *
#611
0!
0"
#613
1!
1"
#615
0!
0"
#617
1!
1"
b1010 %
b1010 -
b0010 &
b0010 .
b0010 3
b1010 4
b1000 5
b1101 6
#619
0!
0"
#621
1!
1"
b0010 /
b0010 '
b1010 0
b1010 (
b1000 1
b1000 )
b1101 2
b1101 *
#623
0!
0"
#625
1!
1"
#627
0!
0"
#629
1!
1"
b1110 %
b1110 -
b0101 &
b0101 .
b0100 3
b1111 4
b1011 5
b1011 6
#631
0!
0"
#633
1!
1"
b0100 /
b0100 '
b1111 0
b1111 (
b1011 1
b1011 )
b1011 2
b1011 *
#635
0!
0"
#637
1!
1"
#639
0!
0"
#641
1!
1"
b1100 %
b1100 -
b1010 &
b1010 .
b1000 3
b1110 4
b0110 5
b0111 6
#643
0!
0"
#645
1!
1"
b1000 /
b1000 '
b1110 0
b1110 (
b0110 1
b0110 )
b0111 2
b0111 *
#647
0!
0"
#649
1!
1"
#651
0!
0"
#653
1!
1"
b1101 %
b1101 -
b0100 &
b0100 .
b0100 3
b1101 4
b1001 5
b1011 6
#655
0!
0"
#657
1!
1"
b0100 /
b0100 '
b1101 0
b1101 (
b1001 1
b1001 )
b1011 2
b1011 *
#659
0!
0"
#661
1!
1"
#663
0!
0"
#665
1!
1"
0$
0,
b0001 %
b0001 -
b0001 &
b0001 .
#667
0!
0"
#669
1!
1"
#671
0!
0"
#673
1!
1"
#675
0!
0"
#677
1!
1"
1$
1,
b0010 %
b0010 -
b1010 &
b1010 .
b0010 3
b1010 4
b1000 5
b1101 6
#679
0!
0"
#681
1!
1"
b0010 /
b0010 '
b1010 0
b1010 (
b1000 1
b1000 )
b1101 2
b1101 *
#683
0!
0"
#685
1!
1"
#687
0!
0"
#689
1!
1"
b0110 %
b0110 -
b0011 &
b0011 .
b0111 4
b0101 5
#691
0!
0"
#693
1!
1"
b0111 0
b0111 (
b0101 1
b0101 )
#695
0!
0"
#697
1!
1"
#699
0!
0"
#701
1!
1"
b1110 %
b1110 -
b0010 &
b0010 .
b1110 4
b1100 5
#703
0!
0"
#705
1!
1"
b1110 0
b1110 (
b1100 1
b1100 )
#707
0!
0"
#709
1!
1"
#711
0!
0"
#713
1!
1"
b0001 %
b0001 -
b1011 &
b1011 .
b0001 3
b1011 4
b1010 5
b1110 6
#715
0!
0"
#717
1!
1"
b0001 /
b0001 '
b1011 0
b1011 (
b1010 1
b1010 )
b1110 2
b1110 *
#719
0!
0"
#721
1!
1"
#723
0!
0"
#725
1!
1"
b1111 &
b1111 .
b1111 4
b1110 5
#727
0!
0"
#729
1!
1"
b1111 0
b1111 (
b1110 1
b1110 )
#731
0!
0"
#733
1!
1"
#735
0!
0"
#737
1!
1"
b1100 %
b1100 -
b1001 &
b1001 .
b1000 3
b1101 4
b0101 5
b0111 6
#739
0!
0"
#741
1!
1"
b1000 /
b1000 '
b1101 0
b1101 (
b0101 1
b0101 )
b0111 2
b0111 *
#743
0!
0"
#745
1!
1"
#747
0!
0"
#749
1!
1"
b0110 %
b0110 -
b1110 &
b1110 .
b0110 3
b1110 4
b1000 5
b1001 6
#751
0!
0"
#753
1!
1"
b0110 /
b0110 '
b1110 0
b1110 (
b1000 1
b1000 )
b1001 2
b1001 *
#755
0!
0"
#757
1!
1"
#759
0!
0"
#761
1!
1"
b1001 %
b1001 -
b1011 &
b1011 .
b1001 3
b1011 4
b0010 5
b0110 6
#763
0!
0"
#765
1!
1"
b1001 /
b1001 '
b1011 0
b1011 (
b0010 1
b0010 )
b0110 2
b0110 *
#767
0!
0"
#769
1!
1"
#771
0!
0"
#773
1!
1"
b0011 %
b0011 -
b0001 &
b0001 .
b0001 3
b0011 4
b1110 6
#775
0!
0"
#777
1!
1"
b0001 /
b0001 '
b0011 0
b0011 (
b1110 2
b1110 *
#779
0!
0"
#781
1!
1"
#783
0!
0"
#785
1!
1"
b0010 %
b0010 -
b0101 &
b0101 .
b0000 3
b0111 4
b0111 5
b1111 6
#787
0!
0"
#789
1!
1"
b0000 /
b0000 '
b0111 0
b0111 (
b0111 1
b0111 )
b1111 2
b1111 *
#791
0!
0"
#793
1!
1"
#795
0!
0"
#797
1!
1"
b0101 %
b0101 -
b1011 &
b1011 .
b0001 3
b1111 4
b1110 5
b1110 6
#799
0!
0"
#801
1!
1"
b0001 /
b0001 '
b1111 0
b1111 (
b1110 1
b1110 )
b1110 2
b1110 *
#803
0!
0"
#805
1!
1"
#807
0!
0"
#809
1!
1"
b0010 %
b0010 -
b0101 &
b0101 .
b0000 3
b0111 4
b0111 5
b1111 6
#811
0!
0"
#813
1!
1"
b0000 /
b0000 '
b0111 0
b0111 (
b0111 1
b0111 )
b1111 2
b1111 *
#815
0!
0"
#817
1!
1"
#819
0!
0"
#821
1!
1"
b0000 %
b0000 -
b1001 &
b1001 .
b1001 4
b1001 5
#823
0!
0"
#825
1!
1"
b1001 0
b1001 (
b1001 1
b1001 )
#827
0!
0"
#829
1!
1"
#831
0!
0"
#833
1!
1"
b1111 %
b1111 -
b1010 &
b1010 .
b1010 3
b1111 4
b0101 5
b0101 6
#835
0!
0"
#837
1!
1"
b1010 /
b1010 '
b1111 0
b1111 (
b0101 1
b0101 )
b0101 2
b0101 *
#839
0!
0"
#841
1!
1"
#843
0!
0"
#845
1!
1"
b1010 %
b1010 -
b1011 &
b1011 .
b1011 4
b0001 5
#847
0!
0"
#849
1!
1"
b1011 0
b1011 (
b0001 1
b0001 )
#851
0!
0"
#853
1!
1"
#855
0!
0"
#857
1!
1"
b1101 %
b1101 -
b0001 &
b0001 .
b0001 3
b1101 4
b1100 5
b1110 6
#859
0!
0"
#861
1!
1"
b0001 /
b0001 '
b1101 0
b1101 (
b1100 1
b1100 )
b1110 2
b1110 *
#863
0!
0"
#865
1!
1"
#867
0!
0"
#869
1!
1"
b0010 %
b0010 -
b0110 &
b0110 .
b0010 3
b0110 4
b0100 5
b1101 6
#871
0!
0"
#873
1!
1"
b0010 /
b0010 '
b0110 0
b0110 (
b0100 1
b0100 )
b1101 2
b1101 *
#875
0!
0"
#877
1!
1"
#879
0!
0"
#881
1!
1"
b0001 %
b0001 -
b0000 3
b0111 4
b0111 5
b1111 6
#883
0!
0"
#885
1!
1"
b0000 /
b0000 '
b0111 0
b0111 (
b0111 1
b0111 )
b1111 2
b1111 *
#887
0!
0"
#889
1!
1"
#891
0!
0"
#893
1!
1"
b1010 %
b1010 -
b0011 &
b0011 .
b0010 3
b1011 4
b1001 5
b1101 6
#895
0!
0"
#897
1!
1"
b0010 /
b0010 '
b1011 0
b1011 (
b1001 1
b1001 )
b1101 2
b1101 *
#899
0!
0"
#901
1!
1"
#903
0!
0"
#905
1!
1"
b0001 %
b0001 -
b1010 &
b1010 .
b0000 3
b1011 5
b1111 6
#907
0!
0"
#909
1!
1"
b0000 /
b0000 '
b1011 1
b1011 )
b1111 2
b1111 *
#911
0!
0"
#913
1!
1"
#915
0!
0"
#917
1!
1"
b0101 %
b0101 -
b0001 &
b0001 .
b0001 3
b0101 4
b0100 5
b1110 6
#919
0!
0"
#921
1!
1"
b0001 /
b0001 '
b0101 0
b0101 (
b0100 1
b0100 )
b1110 2
b1110 *
#923
0!
0"
#925
1!
1"
#927
0!
0"
#929
1!
1"
b1000 %
b1000 -
b0100 &
b0100 .
b0000 3
b1100 4
b1100 5
b1111 6
#931
0!
0"
#933
1!
1"
b0000 /
b0000 '
b1100 0
b1100 (
b1100 1
b1100 )
b1111 2
b1111 *
#935
0!
0"
#937
1!
1"
#939
0!
0"
#941
1!
1"
b0111 %
b0111 -
b0100 3
b0111 4
b0011 5
b1011 6
#943
0!
0"
#945
1!
1"
b0100 /
b0100 '
b0111 0
b0111 (
b0011 1
b0011 )
b1011 2
b1011 *
#947
0!
0"
#949
1!
1"
#951
0!
0"
#953
1!
1"
b1111 &
b1111 .
b0111 3
b1111 4
b1000 5
b1000 6
#955
0!
0"
#957
1!
1"
b0111 /
b0111 '
b1111 0
b1111 (
b1000 1
b1000 )
b1000 2
b1000 *
#959
0!
0"
#961
1!
1"
#963
0!
0"
#965
1!
1"
b0110 %
b0110 -
b1011 &
b1011 .
b0010 3
b1101 5
b1101 6
#967
0!
0"
#969
1!
1"
b0010 /
b0010 '
b1101 1
b1101 )
b1101 2
b1101 *
#971
0!
0"
#973
1!
1"
#975
0!
0"
#977
1!
1"
b0101 %
b0101 -
b0001 3
b1110 5
b1110 6
#979
0!
0"
#981
1!
1"
b0001 /
b0001 '
b1110 1
b1110 )
b1110 2
b1110 *
#983
0!
0"
#985
1!
1"
#987
0!
0"
#989
1!
1"
b0100 %
b0100 -
b1101 &
b1101 .
b0100 3
b1101 4
b1001 5
b1011 6
#991
0!
0"
#993
1!
1"
b0100 /
b0100 '
b1101 0
b1101 (
b1001 1
b1001 )
b1011 2
b1011 *
#995
0!
0"
#997
1!
1"
#999
0!
0"
#1001
1!
1"
b0110 %
b0110 -
b0101 &
b0101 .
b0111 4
b0011 5
#1003
0!
0"
#1005
1!
1"
b0111 0
b0111 (
b0011 1
b0011 )
#1007
0!
0"
#1009
1!
1"
#1011
0!
0"
#1013
1!
1"
b0100 %
b0100 -
b1100 &
b1100 .
b1100 4
b1000 5
#1015
0!
0"
#1017
1!
1"
b1100 0
b1100 (
b1000 1
b1000 )
#1019
0!
0"
#1021
1!
1"
#1023
0!
0"
#1025
1!
1"
b1011 %
b1011 -
b1110 &
b1110 .
b1010 3
b1111 4
b0101 5
b0101 6
#1027
0!
0"
#1029
1!
1"
b1010 /
b1010 '
b1111 0
b1111 (
b0101 1
b0101 )
b0101 2
b0101 *
#1031
0!
0"
#1033
1!
1"
#1035
0!
0"
#1037
1!
1"
b1000 %
b1000 -
b0101 &
b0101 .
b0000 3
b1101 4
b1101 5
b1111 6
#1039
0!
0"
#1041
1!
1"
b0000 /
b0000 '
b1101 0
b1101 (
b1101 1
b1101 )
b1111 2
b1111 *
#1043
0!
0"
#1045
1!
1"
#1047
0!
0"
#1049
1!
1"
0$
0,
b0101 %
b0101 -
b0000 &
b0000 .
#1051
0!
0"
#1053
1!
1"
#1055
0!
0"
#1057
1!
1"
#1059
0!
0"
#1061
1!
1"
1$
1,
b1101 %
b1101 -
b0001 &
b0001 .
b0001 3
b1100 5
b1110 6
#1063
0!
0"
#1065
1!
1"
b0001 /
b0001 '
b1100 1
b1100 )
b1110 2
b1110 *
#1067
0!
0"
#1069
1!
1"
#1071
0!
0"
#1073
1!
1"
b0110 %
b0110 -
b1111 &
b1111 .
b0110 3
b1111 4
b1001 5
b1001 6
#1075
0!
0"
#1077
1!
1"
b0110 /
b0110 '
b1111 0
b1111 (
b1001 1
b1001 )
b1001 2
b1001 *
#1079
0!
0"
#1081
1!
1"
#1083
0!
0"
#1085
1!
1"
b1001 %
b1001 -
b1010 &
b1010 .
b1000 3
b1011 4
b0011 5
b0111 6
#1087
0!
0"
#1089
1!
1"
b1000 /
b1000 '
b1011 0
b1011 (
b0011 1
b0011 )
b0111 2
b0111 *
#1091
0!
0"
#1093
1!
1"
#1095
0!
0"
#1097
1!
1"
b1111 %
b1111 -
b1011 &
b1011 .
b1011 3
b1111 4
b0100 5
b0100 6
#1099
0!
0"
#1101
1!
1"
b1011 /
b1011 '
b1111 0
b1111 (
b0100 1
b0100 )
b0100 2
b0100 *
#1103
0!
0"
#1105
1!
1"
#1107
0!
0"
#1109
1!
1"
b0010 %
b0010 -
b0111 &
b0111 .
b0010 3
b0111 4
b0101 5
b1101 6
#1111
0!
0"
#1113
1!
1"
b0010 /
b0010 '
b0111 0
b0111 (
b0101 1
b0101 )
b1101 2
b1101 *
#1115
0!
0"
#1117
1!
1"
#1119
0!
0"
#1121
1!
1"
b1110 %
b1110 -
b1101 &
b1101 .
b1100 3
b1111 4
b0011 5
b0011 6
#1123
0!
0"
#1125
1!
1"
b1100 /
b1100 '
b1111 0
b1111 (
b0011 1
b0011 )
b0011 2
b0011 *
#1127
0!
0"
#1129
1!
1"
#1131
0!
0"
#1133
1!
1"
0$
0,
b1000 &
b1000 .
#1135
0!
0"
#1137
1!
1"
#1139
0!
0"
#1141
1!
1"
#1143
0!
0"
#1145
1!
1"
1$
1,
b1001 %
b1001 -
b1101 &
b1101 .
b1001 3
b1101 4
b0100 5
b0110 6
#1147
0!
0"
#1149
1!
1"
b1001 /
b1001 '
b1101 0
b1101 (
b0100 1
b0100 )
b0110 2
b0110 *
#1151
0!
0"
#1153
1!
1"
#1155
0!
0"
#1157
1!
1"
b0100 %
b0100 -
b1111 &
b1111 .
b0100 3
b1111 4
b1011 5
b1011 6
#1159
0!
0"
#1161
1!
1"
b0100 /
b0100 '
b1111 0
b1111 (
b1011 1
b1011 )
b1011 2
b1011 *
#1163
0!
0"
#1165
1!
1"
#1167
0!
0"
#1169
1!
1"
b0001 %
b0001 -
b0001 &
b0001 .
b0001 3
b0001 4
b0000 5
b1110 6
#1171
0!
0"
#1173
1!
1"
b0001 /
b0001 '
b0001 0
b0001 (
b0000 1
b0000 )
b1110 2
b1110 *
#1175
0!
0"
#1177
1!
1"
#1179
0!
0"
#1181
1!
1"
b1111 %
b1111 -
b0111 &
b0111 .
b0111 3
b1111 4
b1000 5
b1000 6
#1183
0!
0"
#1185
1!
1"
b0111 /
b0111 '
b1111 0
b1111 (
b1000 1
b1000 )
b1000 2
b1000 *
#1187
0!
0"
#1189
1!
1"
#1191
0!
0"
#1193
1!
1"
b1100 %
b1100 -
b0101 &
b0101 .
b0100 3
b1101 4
b1001 5
b1011 6
#1195
0!
0"
