waves/sim.vcd
$date
	Sat Jul 20 22:58:26 2024
$end

$version
	Synopsys VCS version U-2023.03-SP2_Full64
$end

$timescale
	1ns
$end

$comment Csum: 1 c46644b5a8a9606a $end


$scope module $unit $end
$upscope $end


$scope module top $end
$var reg 1 ! clk $end

$scope begin unnamed$$_vcs_3 $end
$upscope $end


$scope begin CLK_GEN $end
$upscope $end


$scope begin unnamed$$_vcs_0 $end
$upscope $end


$scope begin unnamed$$_vcs_1 $end
$upscope $end


$scope begin unnamed$$_vcs_2 $end
$upscope $end


$scope module intf $end
$var reg 1 " clk $end
$var reg 1 # n_rst $end
$var reg 1 $ en $end
$var reg 4 % foo [3:0] $end
$var reg 4 & bar [3:0] $end
$var reg 4 ' foo_and_bar [3:0] $end
$var reg 4 ( foo_or_bar [3:0] $end
$var reg 4 ) foo_xor_bar [3:0] $end
$var reg 4 * foo_nand_bar [3:0] $end
$upscope $end


$scope module dut $end
$var reg 1 " clk $end
$var reg 1 + n_rst $end
$var reg 1 , en $end
$var reg 4 - foo [3:0] $end
$var reg 4 . bar [3:0] $end
$var reg 4 / foo_and_bar [3:0] $end
$var reg 4 0 foo_or_bar [3:0] $end
$var reg 4 1 foo_xor_bar [3:0] $end
$var reg 4 2 foo_nand_bar [3:0] $end
$var reg 4 3 nxt_foo_and_bar [3:0] $end
$var reg 4 4 nxt_foo_or_bar [3:0] $end
$var reg 4 5 nxt_foo_xor_bar [3:0] $end
$var reg 4 6 nxt_foo_nand_bar [3:0] $end

$scope begin FF $end
$upscope $end


$scope begin COMB $end
$upscope $end

$upscope $end

$upscope $end


$scope module uvm_pkg $end
$var time 64 7 setting_offset $end
$var reg 32 8 uvm_global_random_seed [31:0] $end
$var reg 32 9 UVM_UNBOUNDED_CONNECTIONS [31:0] $end
$var reg 1 : uvm_start_uvm_declarations $end
$var reg 32 ; setting_verbosity [31:0] $end
$var reg 1 < is_verdi_set_verbosity_called $end
$upscope $end

$enddefinitions $end

#0
$dumpvars
0<
1:
bxxxxxxxxxxxxxxxxxxxxxxxxxxxxxxxxxxxxxxxxxxxxxxxxxxxxxxxxxxxxxxxx 7
b11111111111111111111111111111111 9
b00000000000000000000000000000000 ;
b01000010000001111100110001000111 8
1!
bxxxx *
bxxxx )
bxxxx (
bxxxx '
bxxxx &
bxxxx %
bxxxx .
bxxxx -
bxxxx /
bxxxx 2
bxxxx 0
bxxxx 1
bxxxx 3
bxxxx 6
bxxxx 4
bxxxx 5
x,
x+
1"
x$
x#
$end
#2
0!
0"
#4
1!
1"
0#
0+
1$
1,
b0010 %
b0010 -
b0000 &
b0000 .
b0000 3
b0010 4
b0010 5
b1111 6
b0000 /
b0000 '
b0000 0
b0000 (
b0000 1
b0000 )
b0000 2
b0000 *
#6
0!
0"
#8
1!
1"
#10
0!
0"
#12
1!
1"
#14
0!
0"
#16
1!
1"
1#
1+
b1100 %
b1100 -
b0001 &
b0001 .
b1101 4
b1101 5
#18
0!
0"
#20
1!
1"
b1101 0
b1101 (
b1101 1
b1101 )
b1111 2
b1111 *
#22
0!
0"
#24
1!
1"
#26
0!
0"
#28
1!
1"
b1011 %
b1011 -
b0111 &
b0111 .
b0011 3
b1111 4
b1100 5
b1100 6
#30
0!
0"
#32
1!
1"
b0011 /
b0011 '
b1111 0
b1111 (
b1100 1
b1100 )
b1100 2
b1100 *
#34
0!
0"
#36
1!
1"
#38
0!
0"
#40
1!
1"
0$
0,
b0100 %
b0100 -
b0110 &
b0110 .
#42
0!
0"
#44
1!
1"
#46
0!
0"
#48
1!
1"
#50
0!
0"
#52
1!
1"
1$
1,
b0110 %
b0110 -
b1001 &
b1001 .
b0000 3
b1111 5
b1111 6
#54
0!
0"
#56
1!
1"
b0000 /
b0000 '
b1111 1
b1111 )
b1111 2
b1111 *
#58
0!
0"
#60
1!
1"
#62
0!
0"
#64
1!
1"
b0010 %
b0010 -
b0110 &
b0110 .
b0010 3
b0110 4
b0100 5
b1101 6
#66
0!
0"
#68
1!
1"
b0010 /
b0010 '
b0110 0
b0110 (
b0100 1
b0100 )
b1101 2
b1101 *
#70
0!
0"
#72
1!
1"
#74
0!
0"
#76
1!
1"
b1001 %
b1001 -
b0010 &
b0010 .
b0000 3
b1011 4
b1011 5
b1111 6
#78
0!
0"
#80
1!
1"
b0000 /
b0000 '
b1011 0
b1011 (
b1011 1
b1011 )
b1111 2
b1111 *
#82
0!
0"
#84
1!
1"
#86
0!
0"
#88
1!
1"
b1010 %
b1010 -
b1011 &
b1011 .
b1010 3
b0001 5
b0101 6
#90
0!
0"
#92
1!
1"
b1010 /
b1010 '
b0001 1
b0001 )
b0101 2
b0101 *
#94
0!
0"
#96
1!
1"
#98
0!
0"
#100
1!
1"
0$
0,
b0000 %
b0000 -
b0010 &
b0010 .
#102
0!
0"
#104
1!
1"
#106
0!
0"
#108
1!
1"
#110
0!
0"
#112
1!
1"
1$
1,
b1111 %
b1111 -
b1011 &
b1011 .
b1011 3
b1111 4
b0100 5
b0100 6
#114
0!
0"
#116
1!
1"
b1011 /
b1011 '
b1111 0
b1111 (
b0100 1
b0100 )
b0100 2
b0100 *
#118
0!
0"
#120
1!
1"
#122
0!
0"
#124
1!
1"
0#
0+
b1111 &
b1111 .
b1111 3
b0000 5
b0000 6
b0000 /
b0000 '
b0000 0
b0000 (
b0000 1
b0000 )
b0000 2
b0000 *
#126
0!
0"
#128
1!
1"
#130
0!
0"
#132
1!
1"
#134
0!
0"
#136
1!
1"
1#
1+
b1100 %
b1100 -
b1001 &
b1001 .
b1000 3
b1101 4
b0101 5
b0111 6
#138
0!
0"
#140
1!
1"
b1000 /
b1000 '
b1101 0
b1101 (
b0101 1
b0101 )
b0111 2
b0111 *
#142
0!
0"
#144
1!
1"
#146
0!
0"
#148
1!
1"
b0110 %
b0110 -
b0000 3
b1111 4
b1111 5
b1111 6
#150
0!
0"
#152
1!
1"
b0000 /
b0000 '
b1111 0
b1111 (
b1111 1
b1111 )
b1111 2
b1111 *
#154
0!
0"
#156
1!
1"
#158
0!
0"
#160
1!
1"
b0010 %
b0010 -
b1010 &
b1010 .
b0010 3
b1010 4
b1000 5
b1101 6
#162
0!
0"
#164
1!
1"
b0010 /
b0010 '
b1010 0
b1010 (
b1000 1
b1000 )
b1101 2
b1101 *
#166
0!
0"
#168
1!
1"
#170
0!
0"
#172
1!
1"
b0001 %
b0001 -
b1110 &
b1110 .
b0000 3
b1111 4
b1111 5
b1111 6
#174
0!
0"
#176
1!
1"
b0000 /
b0000 '
b1111 0
b1111 (
b1111 1
b1111 )
b1111 2
b1111 *
#178
0!
0"
#180
1!
1"
#182
0!
0"
#184
1!
1"
0#
0+
b0101 %
b0101 -
b1001 &
b1001 .
b0001 3
b1101 4
b1100 5
b1110 6
b0000 0
b0000 (
b0000 1
b0000 )
b0000 2
b0000 *
#186
0!
0"
#188
1!
1"
#190
0!
0"
#192
1!
1"
#194
0!
0"
#196
1!
1"
1#
1+
0$
0,
b0111 %
b0111 -
b0000 3
b0000 4
b0000 5
b0000 6
#198
0!
0"
#200
1!
1"
#202
0!
0"
#204
1!
1"
#206
0!
0"
#208
1!
1"
1$
1,
b1111 %
b1111 -
b0000 &
b0000 .
b1111 4
b1111 5
b1111 6
#210
0!
0"
#212
1!
1"
b1111 0
b1111 (
b1111 1
b1111 )
b1111 2
b1111 *
#214
0!
0"
#216
1!
1"
#218
0!
0"
#220
1!
1"
b1110 %
b1110 -
b0100 &
b0100 .
b0100 3
b1110 4
b1010 5
b1011 6
#222
0!
0"
#224
1!
1"
b0100 /
b0100 '
b1110 0
b1110 (
b1010 1
b1010 )
b1011 2
b1011 *
#226
0!
0"
#228
1!
1"
#230
0!
0"
#232
1!
1"
b1111 %
b1111 -
b0001 &
b0001 .
b0001 3
b1111 4
b1110 5
b1110 6
#234
0!
0"
#236
1!
1"
b0001 /
b0001 '
b1111 0
b1111 (
b1110 1
b1110 )
b1110 2
b1110 *
#238
0!
0"
#240
1!
1"
#242
0!
0"
#244
1!
1"
0$
0,
b0000 %
b0000 -
b1000 &
b1000 .
#246
0!
0"
#248
1!
1"
#250
0!
0"
#252
1!
1"
#254
0!
0"
#256
1!
1"
1$
1,
b1001 %
b1001 -
b0001 &
b0001 .
b1001 4
b1000 5
#258
0!
0"
#260
1!
1"
b1001 0
b1001 (
b1000 1
b1000 )
#262
0!
0"
#264
1!
1"
#266
0!
0"
#268
1!
1"
b0111 %
b0111 -
b0010 &
b0010 .
b0010 3
b0111 4
b0101 5
b1101 6
#270
0!
0"
#272
1!
1"
b0010 /
b0010 '
b0111 0
b0111 (
b0101 1
b0101 )
b1101 2
b1101 *
#274
0!
0"
#276
1!
1"
#278
0!
0"
#280
1!
1"
b1001 %
b1001 -
b0000 3
b1011 4
b1011 5
b1111 6
#282
0!
0"
#284
1!
1"
b0000 /
b0000 '
b1011 0
b1011 (
b1011 1
b1011 )
b1111 2
b1111 *
#286
0!
0"
#288
1!
1"
#290
0!
0"
#292
1!
1"
b0001 %
b0001 -
b0111 &
b0111 .
b0001 3
b0111 4
b0110 5
b1110 6
#294
0!
0"
#296
1!
1"
b0001 /
b0001 '
b0111 0
b0111 (
b0110 1
b0110 )
b1110 2
b1110 *
#298
0!
0"
#300
1!
1"
#302
0!
0"
#304
1!
1"
b0110 %
b0110 -
b1010 &
b1010 .
b0010 3
b1110 4
b1100 5
b1101 6
#306
0!
0"
#308
1!
1"
b0010 /
b0010 '
b1110 0
b1110 (
b1100 1
b1100 )
b1101 2
b1101 *
#310
0!
0"
#312
1!
1"
#314
0!
0"
#316
1!
1"
b1000 %
b1000 -
b0110 &
b0110 .
b0000 3
b1110 5
b1111 6
#318
0!
0"
#320
1!
1"
b0000 /
b0000 '
b1110 1
b1110 )
b1111 2
b1111 *
#322
0!
0"
#324
1!
1"
#326
0!
0"
#328
1!
1"
0$
0,
b0000 %
b0000 -
b1101 &
b1101 .
#330
0!
0"
#332
1!
1"
#334
0!
0"
#336
1!
1"
#338
0!
0"
#340
1!
1"
1$
1,
b1000 %
b1000 -
b0000 &
b0000 .
b1000 4
b1000 5
#342
0!
0"
#344
1!
1"
b1000 0
b1000 (
b1000 1
b1000 )
#346
0!
0"
#348
1!
1"
#350
0!
0"
#352
1!
1"
b0110 %
b0110 -
b0101 &
b0101 .
b0100 3
b0111 4
b0011 5
b1011 6
#354
0!
0"
#356
1!
1"
b0100 /
b0100 '
b0111 0
b0111 (
b0011 1
b0011 )
b1011 2
b1011 *
#358
0!
0"
#360
1!
1"
#362
0!
0"
#364
1!
1"
b1101 %
b1101 -
b0011 &
b0011 .
b0001 3
b1111 4
b1110 5
b1110 6
#366
0!
0"
#368
1!
1"
b0001 /
b0001 '
b1111 0
b1111 (
b1110 1
b1110 )
b1110 2
b1110 *
#370
0!
0"
#372
1!
1"
#374
0!
0"
#376
1!
1"
b0000 %
b0000 -
b0010 &
b0010 .
b0000 3
b0010 4
b0010 5
b1111 6
#378
0!
0"
#380
1!
1"
b0000 /
b0000 '
b0010 0
b0010 (
b0010 1
b0010 )
b1111 2
b1111 *
#382
0!
0"
#384
1!
1"
#386
0!
0"
#388
1!
1"
b1111 %
b1111 -
b0010 3
b1111 4
b1101 5
b1101 6
#390
0!
0"
#392
1!
1"
b0010 /
b0010 '
b1111 0
b1111 (
b1101 1
b1101 )
b1101 2
b1101 *
#394
0!
0"
#396
1!
1"
#398
0!
0"
#400
1!
1"
b1101 %
b1101 -
b1101 &
b1101 .
b1101 3
b1101 4
b0000 5
b0010 6
#402
0!
0"
#404
1!
1"
b1101 /
b1101 '
b1101 0
b1101 (
b0000 1
b0000 )
b0010 2
b0010 *
#406
0!
0"
#408
1!
1"
#410
0!
0"
#412
1!
1"
b1011 %
b1011 -
b1000 &
b1000 .
b1000 3
b1011 4
b0011 5
b0111 6
#414
0!
0"
#416
1!
1"
b1000 /
b1000 '
b1011 0
b1011 (
b0011 1
b0011 )
b0111 2
b0111 *
#418
0!
0"
#420
1!
1"
#422
0!
0"
#424
1!
1"
b0110 %
b0110 -
b1101 &
b1101 .
b0100 3
b1111 4
b1011 5
b1011 6
#426
0!
0"
#428
1!
1"
b0100 /
b0100 '
b1111 0
b1111 (
b1011 1
b1011 )
b1011 2
b1011 *
#430
0!
0"
#432
1!
1"
#434
0!
0"
#436
1!
1"
b0011 &
b0011 .
b0010 3
b0111 4
b0101 5
b1101 6
#438
0!
0"
#440
1!
1"
b0010 /
b0010 '
b0111 0
b0111 (
b0101 1
b0101 )
b1101 2
b1101 *
#442
0!
0"
#444
1!
1"
#446
0!
0"
#448
1!
1"
b0101 %
b0101 -
b1011 &
b1011 .
b0001 3
b1111 4
b1110 5
b1110 6
#450
0!
0"
#452
1!
1"
b0001 /
b0001 '
b1111 0
b1111 (
b1110 1
b1110 )
b1110 2
b1110 *
#454
0!
0"
#456
1!
1"
#458
0!
0"
#460
1!
1"
b1011 %
b1011 -
b1001 &
b1001 .
b1001 3
b1011 4
b0010 5
b0110 6
#462
0!
0"
#464
1!
1"
b1001 /
b1001 '
b1011 0
b1011 (
b0010 1
b0010 )
b0110 2
b0110 *
#466
0!
0"
#468
1!
1"
#470
0!
0"
#472
1!
1"
b1001 %
b1001 -
b0110 &
b0110 .
b0000 3
b1111 4
b1111 5
b1111 6
#474
0!
0"
#476
1!
1"
b0000 /
b0000 '
b1111 0
b1111 (
b1111 1
b1111 )
b1111 2
b1111 *
#478
0!
0"
#480
1!
1"
#482
0!
0"
#484
1!
1"
b0100 %
b0100 -
b0001 &
b0001 .
b0101 4
b0101 5
#486
0!
0"
#488
1!
1"
b0101 0
b0101 (
b0101 1
b0101 )
#490
0!
0"
#492
1!
1"
#494
0!
0"
#496
1!
1"
b1111 %
b1111 -
b1101 &
b1101 .
b1101 3
b1111 4
b0010 5
b0010 6
#498
0!
0"
#500
1!
1"
b1101 /
b1101 '
b1111 0
b1111 (
b0010 1
b0010 )
b0010 2
b0010 *
#502
0!
0"
#504
1!
1"
#506
0!
0"
#508
1!
1"
b1010 &
b1010 .
b1010 3
b0101 5
b0101 6
#510
0!
0"
#512
1!
1"
b1010 /
b1010 '
b0101 1
b0101 )
b0101 2
b0101 *
#514
0!
0"
#516
1!
1"
#518
0!
0"
#520
1!
1"
b1101 %
b1101 -
b1110 &
b1110 .
b1100 3
b0011 5
b0011 6
#522
0!
0"
#524
1!
1"
b1100 /
b1100 '
b0011 1
b0011 )
b0011 2
b0011 *
#526
0!
0"
#528
1!
1"
#530
0!
0"
#532
1!
1"
b0101 %
b0101 -
b0111 &
b0111 .
b0101 3
b0111 4
b0010 5
b1010 6
#534
0!
0"
#536
1!
1"
b0101 /
b0101 '
b0111 0
b0111 (
b0010 1
b0010 )
b1010 2
b1010 *
#538
0!
0"
#540
1!
1"
#542
0!
0"
#544
1!
1"
b0110 %
b0110 -
b0100 &
b0100 .
b0100 3
b0110 4
b1011 6
#546
0!
0"
#548
1!
1"
b0100 /
b0100 '
b0110 0
b0110 (
b1011 2
b1011 *
#550
0!
0"
#552
1!
1"
#554
0!
0"
#556
1!
1"
0$
0,
b1111 %
b1111 -
b1001 &
b1001 .
#558
0!
0"
#560
1!
1"
#562
0!
0"
#564
1!
1"
#566
0!
0"
#568
1!
1"
1$
1,
b0111 %
b0111 -
b0001 3
b1111 4
b1110 5
b1110 6
#570
0!
0"
#572
1!
1"
b0001 /
b0001 '
b1111 0
b1111 (
b1110 1
b1110 )
b1110 2
b1110 *
#574
0!
0"
#576
1!
1"
#578
0!
0"
#580
1!
1"
b1100 %
b1100 -
b0110 &
b0110 .
b0100 3
b1110 4
b1010 5
b1011 6
#582
0!
0"
#584
1!
1"
b0100 /
b0100 '
b1110 0
b1110 (
b1010 1
b1010 )
b1011 2
b1011 *
#586
0!
0"
#588
1!
1"
#590
0!
0"
#592
1!
1"
b1001 %
b1001 -
b0111 &
b0111 .
b0001 3
b1111 4
b1110 5
b1110 6
#594
0!
0"
#596
1!
1"
b0001 /
b0001 '
b1111 0
b1111 (
b1110 1
b1110 )
b1110 2
b1110 *
#598
0!
0"
#600
1!
1"
#602
0!
0"
#604
1!
1"
b1100 &
b1100 .
b1000 3
b1101 4
b0101 5
b0111 6
#606
0!
0"
#608
1!
1"
b1000 /
b1000 '
b1101 0
b1101 (
b0101 1
b0101 )
b0111 2
b0111 *
#610
0!
0"
#612
1!
1"
#614
0!
0"
#616
1!
1"
b1010 %
b1010 -
b0010 &
b0010 .
b0010 3
b1010 4
b1000 5
b1101 6
#618
0!
0"
#620
1!
1"
b0010 /
b0010 '
b1010 0
b1010 (
b1000 1
b1000 )
b1101 2
b1101 *
#622
0!
0"
#624
1!
1"
#626
0!
0"
#628
1!
1"
b1110 %
b1110 -
b0101 &
b0101 .
b0100 3
b1111 4
b1011 5
b1011 6
#630
0!
0"
#632
1!
1"
b0100 /
b0100 '
b1111 0
b1111 (
b1011 1
b1011 )
b1011 2
b1011 *
#634
0!
0"
#636
1!
1"
#638
0!
0"
#640
1!
1"
b1100 %
b1100 -
b1010 &
b1010 .
b1000 3
b1110 4
b0110 5
b0111 6
#642
0!
0"
#644
1!
1"
b1000 /
b1000 '
b1110 0
b1110 (
b0110 1
b0110 )
b0111 2
b0111 *
#646
0!
0"
#648
1!
1"
#650
0!
0"
#652
1!
1"
b1101 %
b1101 -
b0100 &
b0100 .
b0100 3
b1101 4
b1001 5
b1011 6
#654
0!
0"
#656
1!
1"
b0100 /
b0100 '
b1101 0
b1101 (
b1001 1
b1001 )
b1011 2
b1011 *
#658
0!
0"
#660
1!
1"
#662
0!
0"
#664
1!
1"
0$
0,
b0001 %
b0001 -
b0001 &
b0001 .
#666
0!
0"
#668
1!
1"
#670
0!
0"
#672
1!
1"
#674
0!
0"
#676
1!
1"
1$
1,
b0010 %
b0010 -
b1010 &
b1010 .
b0010 3
b1010 4
b1000 5
b1101 6
#678
0!
0"
#680
1!
1"
b0010 /
b0010 '
b1010 0
b1010 (
b1000 1
b1000 )
b1101 2
b1101 *
#682
0!
0"
#684
1!
1"
#686
0!
0"
#688
1!
1"
b0110 %
b0110 -
b0011 &
b0011 .
b0111 4
b0101 5
#690
0!
0"
#692
1!
1"
b0111 0
b0111 (
b0101 1
b0101 )
#694
0!
0"
#696
1!
1"
#698
0!
0"
#700
1!
1"
b1110 %
b1110 -
b0010 &
b0010 .
b1110 4
b1100 5
#702
0!
0"
#704
1!
1"
b1110 0
b1110 (
b1100 1
b1100 )
#706
0!
0"
#708
1!
1"
#710
0!
0"
#712
1!
1"
b0001 %
b0001 -
b1011 &
b1011 .
b0001 3
b1011 4
b1010 5
b1110 6
#714
0!
0"
#716
1!
1"
b0001 /
b0001 '
b1011 0
b1011 (
b1010 1
b1010 )
b1110 2
b1110 *
#718
0!
0"
#720
1!
1"
#722
0!
0"
#724
1!
1"
b1111 &
b1111 .
b1111 4
b1110 5
#726
0!
0"
#728
1!
1"
b1111 0
b1111 (
b1110 1
b1110 )
#730
0!
0"
#732
1!
1"
#734
0!
0"
#736
1!
1"
b1100 %
b1100 -
b1001 &
b1001 .
b1000 3
b1101 4
b0101 5
b0111 6
#738
0!
0"
#740
1!
1"
b1000 /
b1000 '
b1101 0
b1101 (
b0101 1
b0101 )
b0111 2
b0111 *
#742
0!
0"
#744
1!
1"
#746
0!
0"
#748
1!
1"
b0110 %
b0110 -
b1110 &
b1110 .
b0110 3
b1110 4
b1000 5
b1001 6
#750
0!
0"
#752
1!
1"
b0110 /
b0110 '
b1110 0
b1110 (
b1000 1
b1000 )
b1001 2
b1001 *
#754
0!
0"
#756
1!
1"
#758
0!
0"
#760
1!
1"
b1001 %
b1001 -
b1011 &
b1011 .
b1001 3
b1011 4
b0010 5
b0110 6
#762
0!
0"
#764
1!
1"
b1001 /
b1001 '
b1011 0
b1011 (
b0010 1
b0010 )
b0110 2
b0110 *
#766
0!
0"
#768
1!
1"
#770
0!
0"
#772
1!
1"
b0011 %
b0011 -
b0001 &
b0001 .
b0001 3
b0011 4
b1110 6
#774
0!
0"
#776
1!
1"
b0001 /
b0001 '
b0011 0
b0011 (
b1110 2
b1110 *
#778
0!
0"
#780
1!
1"
#782
0!
0"
#784
1!
1"
b0010 %
b0010 -
b0101 &
b0101 .
b0000 3
b0111 4
b0111 5
b1111 6
#786
0!
0"
#788
1!
1"
b0000 /
b0000 '
b0111 0
b0111 (
b0111 1
b0111 )
b1111 2
b1111 *
#790
0!
0"
#792
1!
1"
#794
0!
0"
#796
1!
1"
b0101 %
b0101 -
b1011 &
b1011 .
b0001 3
b1111 4
b1110 5
b1110 6
#798
0!
0"
#800
1!
1"
b0001 /
b0001 '
b1111 0
b1111 (
b1110 1
b1110 )
b1110 2
b1110 *
#802
0!
0"
#804
1!
1"
#806
0!
0"
#808
1!
1"
b0010 %
b0010 -
b0101 &
b0101 .
b0000 3
b0111 4
b0111 5
b1111 6
#810
0!
0"
#812
1!
1"
b0000 /
b0000 '
b0111 0
b0111 (
b0111 1
b0111 )
b1111 2
b1111 *
#814
0!
0"
#816
1!
1"
#818
0!
0"
#820
1!
1"
b0000 %
b0000 -
b1001 &
b1001 .
b1001 4
b1001 5
#822
0!
0"
#824
1!
1"
b1001 0
b1001 (
b1001 1
b1001 )
#826
0!
0"
#828
1!
1"
#830
0!
0"
#832
1!
1"
b1111 %
b1111 -
b1010 &
b1010 .
b1010 3
b1111 4
b0101 5
b0101 6
#834
0!
0"
#836
1!
1"
b1010 /
b1010 '
b1111 0
b1111 (
b0101 1
b0101 )
b0101 2
b0101 *
#838
0!
0"
#840
1!
1"
#842
0!
0"
#844
1!
1"
b1010 %
b1010 -
b1011 &
b1011 .
b1011 4
b0001 5
#846
0!
0"
#848
1!
1"
b1011 0
b1011 (
b0001 1
b0001 )
#850
0!
0"
#852
1!
1"
#854
0!
0"
#856
1!
1"
b1101 %
b1101 -
b0001 &
b0001 .
b0001 3
b1101 4
b1100 5
b1110 6
#858
0!
0"
#860
1!
1"
b0001 /
b0001 '
b1101 0
b1101 (
b1100 1
b1100 )
b1110 2
b1110 *
#862
0!
0"
#864
1!
1"
#866
0!
0"
#868
1!
1"
b0010 %
b0010 -
b0110 &
b0110 .
b0010 3
b0110 4
b0100 5
b1101 6
#870
0!
0"
#872
1!
1"
b0010 /
b0010 '
b0110 0
b0110 (
b0100 1
b0100 )
b1101 2
b1101 *
#874
0!
0"
#876
1!
1"
#878
0!
0"
#880
1!
1"
b0001 %
b0001 -
b0000 3
b0111 4
b0111 5
b1111 6
#882
0!
0"
#884
1!
1"
b0000 /
b0000 '
b0111 0
b0111 (
b0111 1
b0111 )
b1111 2
b1111 *
#886
0!
0"
#888
1!
1"
#890
0!
0"
#892
1!
1"
b1010 %
b1010 -
b0011 &
b0011 .
b0010 3
b1011 4
b1001 5
b1101 6
#894
0!
0"
#896
1!
1"
b0010 /
b0010 '
b1011 0
b1011 (
b1001 1
b1001 )
b1101 2
b1101 *
#898
0!
0"
#900
1!
1"
#902
0!
0"
#904
1!
1"
b0001 %
b0001 -
b1010 &
b1010 .
b0000 3
b1011 5
b1111 6
#906
0!
0"
#908
1!
1"
b0000 /
b0000 '
b1011 1
b1011 )
b1111 2
b1111 *
#910
0!
0"
#912
1!
1"
#914
0!
0"
#916
1!
1"
b0101 %
b0101 -
b0001 &
b0001 .
b0001 3
b0101 4
b0100 5
b1110 6
#918
0!
0"
#920
1!
1"
b0001 /
b0001 '
b0101 0
b0101 (
b0100 1
b0100 )
b1110 2
b1110 *
#922
0!
0"
#924
1!
1"
#926
0!
0"
#928
1!
1"
b1000 %
b1000 -
b0100 &
b0100 .
b0000 3
b1100 4
b1100 5
b1111 6
#930
0!
0"
#932
1!
1"
b0000 /
b0000 '
b1100 0
b1100 (
b1100 1
b1100 )
b1111 2
b1111 *
#934
0!
0"
#936
1!
1"
#938
0!
0"
#940
1!
1"
b0111 %
b0111 -
b0100 3
b0111 4
b0011 5
b1011 6
#942
0!
0"
#944
1!
1"
b0100 /
b0100 '
b0111 0
b0111 (
b0011 1
b0011 )
b1011 2
b1011 *
#946
0!
0"
#948
1!
1"
#950
0!
0"
#952
1!
1"
0#
0+
b1111 &
b1111 .
b0111 3
b1111 4
b1000 5
b1000 6
b0000 /
b0000 '
b0000 0
b0000 (
b0000 1
b0000 )
b0000 2
b0000 *
#954
0!
0"
#956
1!
1"
#958
0!
0"
#960
1!
1"
#962
0!
0"
#964
1!
1"
1#
1+
b0110 %
b0110 -
b1011 &
b1011 .
b0010 3
b1101 5
b1101 6
#966
0!
0"
#968
1!
1"
b0010 /
b0010 '
b1111 0
b1111 (
b1101 1
b1101 )
b1101 2
b1101 *
#970
0!
0"
#972
1!
1"
#974
0!
0"
#976
1!
1"
b0101 %
b0101 -
b0001 3
b1110 5
b1110 6
#978
0!
0"
#980
1!
1"
b0001 /
b0001 '
b1110 1
b1110 )
b1110 2
b1110 *
#982
0!
0"
#984
1!
1"
#986
0!
0"
#988
1!
1"
b0100 %
b0100 -
b1101 &
b1101 .
b0100 3
b1101 4
b1001 5
b1011 6
#990
0!
0"
#992
1!
1"
b0100 /
b0100 '
b1101 0
b1101 (
b1001 1
b1001 )
b1011 2
b1011 *
#994
0!
0"
#996
1!
1"
#998
0!
0"
#1000
1!
1"
b0110 %
b0110 -
b0101 &
b0101 .
b0111 4
b0011 5
#1002
0!
0"
#1004
1!
1"
b0111 0
b0111 (
b0011 1
b0011 )
#1006
0!
0"
#1008
1!
1"
#1010
0!
0"
#1012
1!
1"
b0100 %
b0100 -
b1100 &
b1100 .
b1100 4
b1000 5
#1014
0!
0"
#1016
1!
1"
b1100 0
b1100 (
b1000 1
b1000 )
#1018
0!
0"
#1020
1!
1"
#1022
0!
0"
#1024
1!
1"
b1011 %
b1011 -
b1110 &
b1110 .
b1010 3
b1111 4
b0101 5
b0101 6
#1026
0!
0"
#1028
1!
1"
b1010 /
b1010 '
b1111 0
b1111 (
b0101 1
b0101 )
b0101 2
b0101 *
#1030
0!
0"
#1032
1!
1"
#1034
0!
0"
#1036
1!
1"
b1000 %
b1000 -
b0101 &
b0101 .
b0000 3
b1101 4
b1101 5
b1111 6
#1038
0!
0"
#1040
1!
1"
b0000 /
b0000 '
b1101 0
b1101 (
b1101 1
b1101 )
b1111 2
b1111 *
#1042
0!
0"
#1044
1!
1"
#1046
0!
0"
#1048
1!
1"
0$
0,
b0101 %
b0101 -
b0000 &
b0000 .
#1050
0!
0"
#1052
1!
1"
#1054
0!
0"
#1056
1!
1"
#1058
0!
0"
#1060
1!
1"
1$
1,
b1101 %
b1101 -
b0001 &
b0001 .
b0001 3
b1100 5
b1110 6
#1062
0!
0"
#1064
1!
1"
b0001 /
b0001 '
b1100 1
b1100 )
b1110 2
b1110 *
#1066
0!
0"
#1068
1!
1"
#1070
0!
0"
#1072
1!
1"
b0110 %
b0110 -
b1111 &
b1111 .
b0110 3
b1111 4
b1001 5
b1001 6
#1074
0!
0"
#1076
1!
1"
b0110 /
b0110 '
b1111 0
b1111 (
b1001 1
b1001 )
b1001 2
b1001 *
#1078
0!
0"
#1080
1!
1"
#1082
0!
0"
#1084
1!
1"
b1001 %
b1001 -
b1010 &
b1010 .
b1000 3
b1011 4
b0011 5
b0111 6
#1086
0!
0"
#1088
1!
1"
b1000 /
b1000 '
b1011 0
b1011 (
b0011 1
b0011 )
b0111 2
b0111 *
#1090
0!
0"
#1092
1!
1"
#1094
0!
0"
#1096
1!
1"
b1111 %
b1111 -
b1011 &
b1011 .
b1011 3
b1111 4
b0100 5
b0100 6
#1098
0!
0"
#1100
1!
1"
b1011 /
b1011 '
b1111 0
b1111 (
b0100 1
b0100 )
b0100 2
b0100 *
#1102
0!
0"
#1104
1!
1"
#1106
0!
0"
#1108
1!
1"
b0010 %
b0010 -
b0111 &
b0111 .
b0010 3
b0111 4
b0101 5
b1101 6
#1110
0!
0"
#1112
1!
1"
b0010 /
b0010 '
b0111 0
b0111 (
b0101 1
b0101 )
b1101 2
b1101 *
#1114
0!
0"
#1116
1!
1"
#1118
0!
0"
#1120
1!
1"
b1110 %
b1110 -
b1101 &
b1101 .
b1100 3
b1111 4
b0011 5
b0011 6
#1122
0!
0"
#1124
1!
1"
b1100 /
b1100 '
b1111 0
b1111 (
b0011 1
b0011 )
b0011 2
b0011 *
#1126
0!
0"
#1128
1!
1"
#1130
0!
0"
#1132
1!
1"
0$
0,
b1000 &
b1000 .
#1134
0!
0"
#1136
1!
1"
#1138
0!
0"
#1140
1!
1"
#1142
0!
0"
#1144
1!
1"
1$
1,
b1001 %
b1001 -
b1101 &
b1101 .
b1001 3
b1101 4
b0100 5
b0110 6
#1146
0!
0"
#1148
1!
1"
b1001 /
b1001 '
b1101 0
b1101 (
b0100 1
b0100 )
b0110 2
b0110 *
#1150
0!
0"
#1152
1!
1"
#1154
0!
0"
#1156
1!
1"
b0100 %
b0100 -
b1111 &
b1111 .
b0100 3
b1111 4
b1011 5
b1011 6
#1158
0!
0"
#1160
1!
1"
b0100 /
b0100 '
b1111 0
b1111 (
b1011 1
b1011 )
b1011 2
b1011 *
#1162
0!
0"
#1164
1!
1"
#1166
0!
0"
#1168
1!
1"
b0001 %
b0001 -
b0001 &
b0001 .
b0001 3
b0001 4
b0000 5
b1110 6
#1170
0!
0"
#1172
1!
1"
b0001 /
b0001 '
b0001 0
b0001 (
b0000 1
b0000 )
b1110 2
b1110 *
#1174
0!
0"
#1176
1!
1"
#1178
0!
0"
#1180
1!
1"
b1111 %
b1111 -
b0111 &
b0111 .
b0111 3
b1111 4
b1000 5
b1000 6
#1182
0!
0"
#1184
1!
1"
b0111 /
b0111 '
b1111 0
b1111 (
b1000 1
b1000 )
b1000 2
b1000 *
#1186
0!
0"
#1188
1!
1"
#1190
0!
0"
